{
  "full_name": "John Doe",
  "email": "contact@john-doe.com",
  "gitlab_username": "jdoe",
  "project_name": "My Project",
  "project_code": "MYPR",
  "project_slug": "{{ cookiecutter.project_name.lower().replace(' ', '_').replace('-', '_') }}",
  "gitlab_slug": "{{ cookiecutter.project_name.lower().replace(' ', '-').replace('_', '-') }}",
  "project_short_description": "My Project contains all you need to make your own python project template",
  "version": "0.0.1",
  "use_pytest": "y",
  "command_line_interface": ["Click", "No command-line interface"],
  "open_source_license": ["MIT license", "BSD license", "ISC license", "Apache Software License 2.0", "GNU General Public License v3", "Not open source"],
  "use_gitlab_ci": "y",
  "use_docker_compose": "y"
}
